Tipo_DORSAL,Sexo_CORREDOR,Nombre_CORREDOR,Apellidos_CORREDOR,Email_CORREDOR,DNI_CORREDOR, Fecha_nacimiento_CORREDOR,Nombre_EQUIPO,Nombre_TUTOR,Apellidos_TUTOR,Email_TUTOR,DNI_TUTOR,RELACION
Dorsal ENKI,Hombre,James,Butt,james@butt.com,854769215H,5/9/1972,Butt,,,,,
Dorsal ENKI,Mujer,Marge,Butt,marge@butt.com,574125987T,2/3/1975,Butt,,,,,
Dorsal menores,Mujer,Lisa,Butt,,,6/7/2004,Butt,James,Butt,james@butt.com,854769215H,Padre
Dorsal ENKI,Hombre,Art,Venere,art@venere.com,639875154P,7/7/1979,Veneres,,,,,
Dorsal ENKI,Mujer,Simona,Venere,simona@venere.com,232569874L,10/10/1985,Veneres,,,,,
Dorsal menores,Hombre,Eric,Venere,,,1/1/2010,Veneres,Simona,Venere,simona@venere.com,232569874L,Madre
Dorsal menores,Mujer,Josephine,Venere,,,6/10/2012,Veneres,Simona,Venere,simona@venere.com,232569874L,Madre
Dorsal ENKI,Hombre,Kenneth,Grenet,kenneth@grenet.com,142589741A,9/11/1965,,,,,,
Dorsal ENKI,Hombre,Bret,McCullan,bret@maccullan.com,326589741K,11/12/1985,,,,,,
Dorsal ENKI,Hombre,Dean,Munis,dean@munis.com,987451258O,5/9/1980,Munis and Son,,,,,
Dorsal menores,Hombre,Levi,Munis,,,6/8/2008,Munis and Son,Dean,Munis,dean@munis.com,987451258O,Padre
Dorsal ENKI,Mujer,Lena,Newville,lena@newville.com,632587412S,7/9/1969,,,,,,
Dorsal ENKI,Mujer,Ciara,Ventura,ciara@ventura.com,214587963U,10/11/1990,AceVentura,,,,,
Dorsal menores,Mujer,Audrie,Ventura,,,8/1/2010,AceVentura,Ciara,Ventura,ciara@ventura.com,214587963U,Madre
Dorsal ENKI,Mujer,Mar,Tina,ojeamar@gmail.com,142589741R,5/9/1980,,,,,,
Dorsal ENKI,Hombre,Miguel,Lito,mrommel11@gmail.com,326589741S,5/9/1980,,,,,,
Dorsal ENKI,Hombre,Pablo,Queo,pazosb.pablo@gmail.com,987451258H,5/9/1980,,,,,,
