Tipo_DORSAL,Sexo_CORREDOR,Nombre_CORREDOR,Apellidos_CORREDOR,Email_CORREDOR,DNI_CORREDOR, Fecha_nacimiento_CORREDOR,Nombre_EQUIPO,Nombre_TUTOR,Apellidos_TUTOR,Email_TUTOR,DNI_TUTOR,RELACION
Dorsal ENKI,Hombre,Jaime,Burgos,j@bu.com,00000001A,5/9/1972,Burgos,,,,,
Dorsal ENKI,Mujer,Margarita,Burgos,m@bu.com,00000002A,2/3/1975,Burgos,,,,,
Dorsal menores,Mujer,Elisa,Burgos,,00000003A,6/7/2004,Burgos,Jaime,Burgos,j@bu.com,00000001A,Padre
Dorsal ENKI,Hombre,Arturo,Vales,art@vales.com,00000004A,7/7/1979,Vales,,,,,
Dorsal ENKI,Mujer,Simona,Vales,simona@vales.com,00000005A,10/10/1985,Vales,,,,,
Dorsal menores,Hombre,Enrique,Vales,,00000006A,1/1/2010,Vales,Simona,Vales,simona@vales.com,00000005A,Madre
Dorsal menores,Mujer,Josefina,Vales,,00000007A,6/10/2012,Vales,Simona,Vales,simona@vales.com,00000005A,Madre
Dorsal ENKI,Hombre,Gonzalo,Garcia,gg@me.com,00000008A,9/11/1965,,,,,,
Dorsal ENKI,Hombre,Alberto,Marcos,amarcos@maccullan.com,00000009A,11/12/1985,,,,,,
Dorsal ENKI,Hombre,Daniel,Munis,dani@munis.com,00000010A,5/9/1980,Munis and Son,,,,,
Dorsal menores,Hombre,Luis,Munis,,00000011A,6/8/2008,Munis and Son,Daniel,Munis,dani@munis.com,00000010A,Padre
Dorsal ENKI,Mujer,Elena,Naveira,lena@newville.com,00000012A,7/9/1969,,,,,,
Dorsal ENKI,Mujer,Clara,Ventura,ciara@ventura.com,00000013A,10/11/1990,AceVentura,,,,,
Dorsal menores,Mujer,Alma,Ventura,,00000014A,8/1/2010,AceVentura,Ciara,Ventura,ciara@ventura.com,00000013A,Madre
Dorsal ENKI,Mujer,Mar,Ojea,ojeamar@gmail.com,00000015A,5/9/1980,,,,,,
Dorsal ENKI,Hombre,Miguel,Soler,mrommel11@gmail.com,00000016A,5/9/1980,,,,,,
Dorsal ENKI,Hombre,Pablo,Pazos,pazosb.pablo@gmail.com,00000017A,07/07/1980,,,,,,
Dorsal ENKI,Hombre,Jaime,Brea,james@be.com,00000018A,5/9/1972,Brt,,,,,
Dorsal ENKI,Mujer,Margarita,Brea,marge@be.com,00000019A,2/3/1975,Brt,,,,,
Dorsal menores,Mujer,Elisa,Brea,,00000020A,6/7/2004,Brt,Jaime,Brea,james@be.com,00000018A,Padre
Dorsal ENKI,Hombre,Arturo,Vazquez,art@ven.com,00000021A,7/7/1979,Varqueces,,,,,
Dorsal ENKI,Mujer,Simona,Vazquez,simona@ven.com,00000022A,10/10/1985,Varqueces,,,,,
Dorsal menores,Hombre,Enrique,Vazquez,,00000023A,1/1/2010,Varqueces,Simona,Vazquez,simona@ven.com,00000022A,Madre
Dorsal menores,Mujer,Josefina,Vazquez,,00000024A,6/10/2012,Varqueces,Simona,Vazquez,simona@ven.com,00000022A,Madre
Dorsal ENKI,Hombre,Gonzalo,Gomez,gon@grenet.com,00000025A,9/11/1965,Varqueces,,,,,
Dorsal ENKI,Hombre,Alberto,Martin,amartin@maccullan.com,00000026A,11/12/1985,Varqueces,,,,,
Dorsal ENKI,Hombre,Daniel,Mato,dmato@me.com,00000027A,5/9/1980,Varqueces,,,,,
Dorsal menores,Hombre,Luis,Mato,,00000028A,6/8/2008,Varqueces,Daniel,Mato,dmato@me.com,00000027A,Padre
Dorsal ENKI,Mujer,Elena,Navazas,lena@navazas.com,00000029A,7/9/1969,Varqueces,,,,,
Dorsal ENKI,Mujer,Clara,Ventas,clara@ventas.com,00000030A,10/11/1990,Varqueces,,,,,
Dorsal menores,Mujer,Alma,Ventas,,00000031A,8/1/2010,Varqueces,Clara,Ventas,clara@ventas.com,00000030A,Madre
Dorsal ENKI,Mujer,Mar,Vidal,vidalm@gail.com,00000032A,5/9/1980,,,,,,
Dorsal ENKI,Hombre,Miguel,Torres,torresm@gail.com,00000033A,5/9/1980,,,,,,
Dorsal ENKI,Hombre,Pablo,Coma,comap@gail.com,00000034A,07/07/1980,,,,,,
Dorsal ENKI,Hombre,Jaime,Burgos,j@bu.com,00000035A,5/9/1972,Burgos,,,,,
Dorsal ENKI,Mujer,Margarita,Burgos,m@bu.com,00000036A,2/3/1975,Burgos,,,,,
Dorsal menores,Mujer,Elisa,Burgos,,00000037A,6/7/2004,Burgos,Jaime,Burgos,j@bu.com,00000001A,Padre
Dorsal ENKI,Hombre,Arturo,Vales,art@vales.com,00000038A,7/7/1979,Vales,,,,,
Dorsal ENKI,Mujer,Simona,Vales,simona@vales.com,00000039A,10/10/1985,Vales,,,,,
Dorsal menores,Hombre,Enrique,Vales,,00000040A,1/1/2010,Vales,Simona,Vales,simona@vales.com,00000005A,Madre
Dorsal menores,Mujer,Josefina,Vales,,00000041A,6/10/2012,Vales,Simona,Vales,simona@vales.com,00000005A,Madre
Dorsal ENKI,Hombre,Gonzalo,Garcia,gg@me.com,00000042A,9/11/1965,,,,,,
Dorsal ENKI,Hombre,Alberto,Marcos,amarcos@maccullan.com,00000043A,11/12/1985,,,,,,
Dorsal ENKI,Hombre,Daniel,Munis,dani@munis.com,00000044A,5/9/1980,Munis and Son,,,,,
Dorsal menores,Hombre,Luis,Munis,,00000045A,6/8/2008,Munis and Son,Daniel,Munis,dani@munis.com,00000010A,Padre
Dorsal ENKI,Mujer,Elena,Naveira,lena@newville.com,00000046A,7/9/1969,,,,,,
Dorsal ENKI,Mujer,Clara,Ventura,ciara@ventura.com,00000047A,10/11/1990,AceVentura,,,,,
Dorsal menores,Mujer,Alma,Ventura,,00000048A,8/1/2010,AceVentura,Ciara,Ventura,ciara@ventura.com,00000013A,Madre
Dorsal ENKI,Mujer,Mar,Vidal,mar@vidal.com,00000049A,5/9/1980,,,,,,
Dorsal ENKI,Hombre,Miguel,Solanes,solanes@solanes.com,00000050A,5/9/1980,,,,,,
Dorsal ENKI,Hombre,Pablo,Paz,paz.pablo@mimail.com,00000051A,07/07/1980,,,,,,
Dorsal ENKI,Hombre,Jaime,Brea,james@be.com,00000052A,5/9/1972,Brt,,,,,
Dorsal ENKI,Mujer,Margarita,Brea,marge@be.com,00000053A,2/3/1975,Brt,,,,,
Dorsal menores,Mujer,Elisa,Brea,,00000054A,6/7/2004,Brt,Jaime,Brea,james@be.com,00000018A,Padre
Dorsal ENKI,Hombre,Arturo,Vazquez,art@ven.com,00000055A,7/7/1979,Varqueces,,,,,
Dorsal ENKI,Mujer,Simona,Vazquez,simona@ven.com,00000056A,10/10/1985,Varqueces,,,,,
Dorsal menores,Hombre,Enrique,Vazquez,,00000057A,1/1/2010,Varqueces,Simona,Vazquez,simona@ven.com,00000022A,Madre
Dorsal menores,Mujer,Josefina,Vazquez,,00000058A,6/10/2012,Varqueces,Simona,Vazquez,simona@ven.com,00000022A,Madre
Dorsal ENKI,Hombre,Gonzalo,Gomez,gon@grenet.com,00000059A,9/11/1965,,,,,,
Dorsal ENKI,Hombre,Alberto,Martin,amartin@maccullan.com,00000060A,11/12/1985,,,,,,
Dorsal ENKI,Hombre,Daniel,Mato,dmato@me.com,00000061A,5/9/1980,Munis and Son,,,,,
Dorsal menores,Hombre,Luis,Mato,,00000062A,6/8/2008,Munis and Son,Daniel,Mato,dmato@me.com,00000027A,Padre
Dorsal ENKI,Mujer,Elena,Navazas,lena@navazas.com,00000063A,7/9/1969,,,,,,
Dorsal ENKI,Mujer,Clara,Ventas,clara@ventas.com,00000064A,10/11/1990,AceVentura,,,,,
Dorsal menores,Mujer,Alma,Ventas,,00000065A,8/1/2010,AceVentura,Clara,Ventas,clara@ventas.com,00000030A,Madre
Dorsal ENKI,Mujer,Mar,Vidal,vidalm@gail.com,00000066A,5/9/1980,,,,,,
Dorsal ENKI,Hombre,Miguel,Torres,torresm@gail.com,00000067A,5/9/1980,,,,,,
Dorsal ENKI,Hombre,Pablo,Coma,comap@gail.com,00000068A,07/07/1980,,,,,,
Dorsal ENKI,Hombre,Jaime,Burgos,j@bu.com,00000069A,5/9/1972,Burgos,,,,,
Dorsal ENKI,Mujer,Margarita,Burgos,m@bu.com,00000070A,2/3/1975,Burgos,,,,,
Dorsal menores,Mujer,Elisa,Burgos,,00000071A,6/7/2004,Burgos,Jaime,Burgos,j@bu.com,00000001A,Padre
Dorsal ENKI,Hombre,Arturo,Vales,art@vales.com,00000072A,7/7/1979,Vales,,,,,
Dorsal ENKI,Mujer,Simona,Vales,simona@vales.com,00000073A,10/10/1985,Vales,,,,,
Dorsal menores,Hombre,Enrique,Vales,,00000074A,1/1/2010,Vales,Simona,Vales,simona@vales.com,00000005A,Madre
Dorsal menores,Mujer,Josefina,Vales,,00000075A,6/10/2012,Vales,Simona,Vales,simona@vales.com,00000005A,Madre
Dorsal ENKI,Hombre,Gonzalo,Garcia,gg@me.com,00000076A,9/11/1965,,,,,,
Dorsal ENKI,Hombre,Alberto,Marcos,amarcos@maccullan.com,00000077A,11/12/1985,,,,,,
Dorsal ENKI,Hombre,Daniel,Munis,dani@munis.com,00000078A,5/9/1980,Munis and Son,,,,,
Dorsal menores,Hombre,Luis,Munis,,00000079A,6/8/2008,Munis and Son,Daniel,Munis,dani@munis.com,00000010A,Padre
Dorsal ENKI,Mujer,Elena,Naveira,lena@newville.com,00000080A,7/9/1969,,,,,,
Dorsal ENKI,Mujer,Clara,Ventura,ciara@ventura.com,00000081A,10/11/1990,AceVentura,,,,,
Dorsal menores,Mujer,Alma,Ventura,,00000082A,8/1/2010,AceVentura,Ciara,Ventura,ciara@ventura.com,00000013A,Madre
Dorsal ENKI,Mujer,Mar,Montana,mar@montana.com,00000083A,5/9/1980,,,,,,
Dorsal ENKI,Hombre,Miguel,Crespo,mic@crespo.com,00000084A,5/9/1980,,,,,,
Dorsal ENKI,Hombre,Pablo,Lopez,superlopez@team.com,00000085A,07/07/1980,,,,,,
Dorsal ENKI,Hombre,Jaime,Brea,james@be.com,00000086A,5/9/1972,Brt,,,,,
Dorsal ENKI,Mujer,Margarita,Brea,marge@be.com,00000087A,2/3/1975,Brt,,,,,
Dorsal menores,Mujer,Elisa,Brea,,00000088A,6/7/2004,Brt,Jaime,Brea,james@be.com,00000018A,Padre
Dorsal ENKI,Hombre,Arturo,Vazquez,art@ven.com,00000089A,7/7/1979,Varqueces,,,,,
Dorsal ENKI,Mujer,Simona,Vazquez,simona@ven.com,00000090A,10/10/1985,Varqueces,,,,,
Dorsal menores,Hombre,Enrique,Vazquez,,00000091A,1/1/2010,Varqueces,Simona,Vazquez,simona@ven.com,00000022A,Madre
Dorsal menores,Mujer,Josefina,Vazquez,,00000092A,6/10/2012,Varqueces,Simona,Vazquez,simona@ven.com,00000022A,Madre
Dorsal ENKI,Hombre,Gonzalo,Gomez,gon@grenet.com,00000093A,9/11/1965,,,,,,
Dorsal ENKI,Hombre,Alberto,Martin,amartin@maccullan.com,00000094A,11/12/1985,,,,,,
Dorsal ENKI,Hombre,Daniel,Mato,dmato@me.com,00000095A,5/9/1980,Munis and Son,,,,,
Dorsal menores,Hombre,Luis,Mato,,00000096A,6/8/2008,Munis and Son,Daniel,Mato,dmato@me.com,00000027A,Padre
Dorsal ENKI,Mujer,Elena,Navazas,lena@navazas.com,00000097A,7/9/1969,,,,,,
Dorsal ENKI,Mujer,Clara,Ventas,clara@ventas.com,00000098A,10/11/1990,AceVentura,,,,,
Dorsal ENKI,Mujer,Clara,Ventas,clara@ventas.com,00000098A,10/11/1990,AceVentura,,,,,
Dorsal ENKI,Mujer,Simona,Vazquez,simona@ven.com,00000090A,10/10/1985,Varqueces,,,,,
